,0HZk0QsXPhMNAWNDR3rYE8,712uvW1Vezq8WpQi38v2L9,0AOvNRgl0SMfOibWA5bP8o,0d0jsoba88SpOoFxCxA2rZ,2P3SLxeQHPqh8qKB6gtJY2,2cDCojn6uIBM6A5xTAbl3H,3TBiDIgowqySAT34uJ01nf,5vuJuBqwzHJgCA1ysRfwxZ,7GZ4WYixf0D6DWvvi60yTM,5ujh1I7NZH5agbwf7Hp8Hc,4bEcoz1OcfMgUbp2ft8ieQ,5hVghJ4KaYES3BFUATCYn0,7FXy91VYxCQVFtFcSjr4jD,078C2jXg7XsMgW78Gfx1JA,0NjW4SKY3gbfl2orl1p8hr,0fv2KH6hac06J86hBUTcSf,0gO3E51A3fqp0ypJ26QbVP,1hz7SRTGUNAtIQ46qiNv2p,1jzIJcHCXneHw7ojC6LXiF,1otG6j1WHNvl9WgXLWkHTo,1vvBUZseJ7fwYPX1NedOLd,2q0VexHJirnUPnEOhr2DxK,3jHdKaLCkuNEkWcLVmQPCX,4f8Mh5wuWHOsfXtzjrJB3t,4sNG6zQBmtq7M8aeeKJRMQ,5WNYg3usc6H8N3MBEp4zVk,6u3CPnFMKANYgfdiifFOiJ,7KA4W4McWYRpgf0fWsJZWB,04QTBqa3IA4ZAKEuqRPzEH,086myS9r57YsLbJpU0TgK9,09j5G3cPZQdRIv0VhVLAZz,0EWT5JnKOf6saRn4ASff3j,0F58GE2TtHBim5o4ZTQUwK,0I1eFRytp4XRhLCjT6tZm7,0I5mUa3CZPcsrWwlUmTWkV,0PldjOTKRt45S9MrLnlwVM,0SA0mMXWh23raZ6xzOCU2V,0Y71FEcRkyZOh4hySnEGB5,0Y8o2jU3ATJsIuatAhTG5Y,0oPOuDmmkVp3h6puekhs6P,0qtK3XwbuG153dmwB8iepL,0ujsBQIHVikzdQOekiu5gS,15p9t3NubOAe6BhsZKMrT1,19YKaevk2bce4odJkP5L22,19woxaSpjOefa2JnAOoqW5,1AqemxWsT0iGg5Lvkm16Bt,1EQCyLy5aXQx59gRAF1YCt,1F1XjwRzMh8KT2BvH6ISkG,1IlVcgWE76pk1FKKtsy3ot,1UIcqXAA24eg76EFWViwr5
danceability,0.364,0.587,0.716,0.555,0.779,0.487,0.696,0.451,0.302,0.716,0.48,0.554,0.678,0.427,0.358,0.621,0.784,0.518,0.538,0.702,0.792,0.673,0.596,0.826,0.687,0.559,0.539,0.558,0.443,0.691,0.661,0.647,0.593,0.247,0.572,0.676,0.35,0.438,0.343,0.611,0.449,0.75,0.684,0.543,0.73,0.798,0.776,0.476,0.636,0.476
energy,0.378,0.698,0.531,0.611,0.572,0.729,0.485,0.831,0.377,0.485,0.61,0.498,0.629,0.849,0.715,0.73,0.632,0.492,0.612,0.659,0.698,0.463,0.575,0.579,0.617,0.578,0.615,0.559,0.576,0.631,0.598,0.699,0.673,0.438,0.324,0.641,0.621,0.717,0.866,0.459,0.434,0.71,0.597,0.394,0.457,0.412,0.386,0.663,0.676,0.81
key,7,1,7,10,6,2,6,5,3,1,0,9,9,7,7,5,10,10,2,4,1,2,11,8,4,8,1,6,1,2,2,9,2,5,0,9,8,0,0,0,1,10,0,8,9,2,1,6,2,4
loudness,-7.381,-8.948,-7.355,-9.216,-9.985,-6.815,-6.539,-8.641,-7.606,-7.745,-7.042,-8.866,-6.884,-2.945,-6.181,-5.414,-6.083,-8.436,-6.02,-6.766,-6.364,-7.247,-8.325,-8.241,-5.213,-9.54,-8.746,-9.222,-8.695,-6.478,-5.287,-8.122,-6.324,-8.479,-9.297,-7.923,-6.495,-8.505,-3.159,-3.926,-11.777,-7.936,-6.449,-9.637,-7.26,-9.305,-7.806,-6.905,-3.442,-3.414
mode,0,1,1,0,0,1,1,0,0,1,1,1,1,1,1,0,0,0,1,0,1,1,0,0,1,1,0,1,0,1,1,0,1,1,1,1,0,1,1,0,1,0,1,1,1,1,0,1,1,0
speechiness,0.0331,0.0943,0.122,0.356,0.378,0.271,0.051,0.307,0.0889,0.404,0.305,0.0685,0.109,0.348,0.331,0.107,0.347,0.193,0.424,0.13,0.172,0.191,0.0514,0.0801,0.0287,0.151,0.252,0.0959,0.201,0.0368,0.0604,0.0668,0.117,0.0358,0.0512,0.0296,0.233,0.34,0.0709,0.0422,0.243,0.0395,0.0275,0.0864,0.283,0.36,0.0841,0.191,0.0263,0.265
acousticness,0.47,0.0152,0.0703,0.286,0.157,0.0538,0.0576,0.0623,0.143,0.123,0.0456,0.23,0.308,0.015,0.197,0.0967,0.156,0.216,0.308,0.301,0.489,0.681,0.0861,0.00881,0.0941,0.79,0.173,0.371,0.0709,0.0483,0.424,0.0397,0.373,0.0455,0.737,0.267,0.256,0.404,0.0919,0.614,0.306,0.107,0.145,0.695,0.0705,0.443,0.156,0.182,0.0807,0.0803
instrumentalness,0,0,0,0.00106,0,4.07e-06,0,0,0,2.69e-05,0,5.98e-06,0,0.00373,0,0.000131,0,0.0012,0,0.00201,0.0788,4.9e-06,0.000153,0,1.27e-05,0.000522,0.0056,7.49e-06,0.0197,1.13e-05,9.11e-05,3.15e-05,0.000808,0.000871,0,0.262,3.44e-05,3.16e-06,0,0,2.76e-06,0.000989,8.55e-06,0.000239,0,7.43e-05,1.85e-05,0,0,0
liveness,0.339,0.442,0.224,0.273,0.246,0.44,0.183,0.185,0.104,0.604,0.313,0.795,0.108,0.153,0.581,0.673,0.605,0.146,0.213,0.218,0.127,0.0907,0.334,0.129,0.0898,0.324,0.144,0.109,0.41,0.104,0.195,0.154,0.281,0.111,0.124,0.119,0.613,0.238,0.219,0.126,0.633,0.449,0.113,0.108,0.124,0.219,0.106,0.321,0.0831,0.568
valence,0.366,0.0985,0.344,0.411,0.647,0.217,0.518,0.41,0.237,0.26,0.297,0.413,0.208,0.55,0.275,0.464,0.746,0.471,0.684,0.843,0.751,0.268,0.34,0.431,0.665,0.239,0.493,0.62,0.127,0.8,0.491,0.53,0.88,0.39,0.234,0.352,0.459,0.633,0.254,0.177,0.371,0.797,0.382,0.118,0.549,0.304,0.417,0.525,0.273,0.642
tempo,89.918,133.954,71.994,94.939,135.956,91.048,142.891,176.162,83.215,74.132,90.034,79.635,145.932,79.155,85.478,139.566,124.603,78.848,168.197,79.64,129.971,147.981,98.265,121.075,121.079,79.938,163.924,78.558,151.835,92.004,126.872,91.435,150.526,185.716,94.048,84.97,83.375,118.174,185.921,148.28,78.57,120.004,76.97,137.811,111.352,135.959,123.914,74.884,113.98,83.309
type,audio_features,audio_features,audio_features,audio_features,audio_features,audio_features,audio_features,audio_features,audio_features,audio_features,audio_features,audio_features,audio_features,audio_features,audio_features,audio_features,audio_features,audio_features,audio_features,audio_features,audio_features,audio_features,audio_features,audio_features,audio_features,audio_features,audio_features,audio_features,audio_features,audio_features,audio_features,audio_features,audio_features,audio_features,audio_features,audio_features,audio_features,audio_features,audio_features,audio_features,audio_features,audio_features,audio_features,audio_features,audio_features,audio_features,audio_features,audio_features,audio_features,audio_features
id,0HZk0QsXPhMNAWNDR3rYE8,712uvW1Vezq8WpQi38v2L9,0AOvNRgl0SMfOibWA5bP8o,0d0jsoba88SpOoFxCxA2rZ,2P3SLxeQHPqh8qKB6gtJY2,2cDCojn6uIBM6A5xTAbl3H,3TBiDIgowqySAT34uJ01nf,5vuJuBqwzHJgCA1ysRfwxZ,7GZ4WYixf0D6DWvvi60yTM,5ujh1I7NZH5agbwf7Hp8Hc,4bEcoz1OcfMgUbp2ft8ieQ,5hVghJ4KaYES3BFUATCYn0,7FXy91VYxCQVFtFcSjr4jD,078C2jXg7XsMgW78Gfx1JA,0NjW4SKY3gbfl2orl1p8hr,0fv2KH6hac06J86hBUTcSf,0gO3E51A3fqp0ypJ26QbVP,1hz7SRTGUNAtIQ46qiNv2p,1jzIJcHCXneHw7ojC6LXiF,1otG6j1WHNvl9WgXLWkHTo,1vvBUZseJ7fwYPX1NedOLd,2q0VexHJirnUPnEOhr2DxK,3jHdKaLCkuNEkWcLVmQPCX,4f8Mh5wuWHOsfXtzjrJB3t,4sNG6zQBmtq7M8aeeKJRMQ,5WNYg3usc6H8N3MBEp4zVk,6u3CPnFMKANYgfdiifFOiJ,7KA4W4McWYRpgf0fWsJZWB,04QTBqa3IA4ZAKEuqRPzEH,086myS9r57YsLbJpU0TgK9,09j5G3cPZQdRIv0VhVLAZz,0EWT5JnKOf6saRn4ASff3j,0F58GE2TtHBim5o4ZTQUwK,0I1eFRytp4XRhLCjT6tZm7,0I5mUa3CZPcsrWwlUmTWkV,0PldjOTKRt45S9MrLnlwVM,0SA0mMXWh23raZ6xzOCU2V,0Y71FEcRkyZOh4hySnEGB5,0Y8o2jU3ATJsIuatAhTG5Y,0oPOuDmmkVp3h6puekhs6P,0qtK3XwbuG153dmwB8iepL,0ujsBQIHVikzdQOekiu5gS,15p9t3NubOAe6BhsZKMrT1,19YKaevk2bce4odJkP5L22,19woxaSpjOefa2JnAOoqW5,1AqemxWsT0iGg5Lvkm16Bt,1EQCyLy5aXQx59gRAF1YCt,1F1XjwRzMh8KT2BvH6ISkG,1IlVcgWE76pk1FKKtsy3ot,1UIcqXAA24eg76EFWViwr5
uri,spotify:track:0HZk0QsXPhMNAWNDR3rYE8,spotify:track:712uvW1Vezq8WpQi38v2L9,spotify:track:0AOvNRgl0SMfOibWA5bP8o,spotify:track:0d0jsoba88SpOoFxCxA2rZ,spotify:track:2P3SLxeQHPqh8qKB6gtJY2,spotify:track:2cDCojn6uIBM6A5xTAbl3H,spotify:track:3TBiDIgowqySAT34uJ01nf,spotify:track:5vuJuBqwzHJgCA1ysRfwxZ,spotify:track:7GZ4WYixf0D6DWvvi60yTM,spotify:track:5ujh1I7NZH5agbwf7Hp8Hc,spotify:track:4bEcoz1OcfMgUbp2ft8ieQ,spotify:track:5hVghJ4KaYES3BFUATCYn0,spotify:track:7FXy91VYxCQVFtFcSjr4jD,spotify:track:078C2jXg7XsMgW78Gfx1JA,spotify:track:0NjW4SKY3gbfl2orl1p8hr,spotify:track:0fv2KH6hac06J86hBUTcSf,spotify:track:0gO3E51A3fqp0ypJ26QbVP,spotify:track:1hz7SRTGUNAtIQ46qiNv2p,spotify:track:1jzIJcHCXneHw7ojC6LXiF,spotify:track:1otG6j1WHNvl9WgXLWkHTo,spotify:track:1vvBUZseJ7fwYPX1NedOLd,spotify:track:2q0VexHJirnUPnEOhr2DxK,spotify:track:3jHdKaLCkuNEkWcLVmQPCX,spotify:track:4f8Mh5wuWHOsfXtzjrJB3t,spotify:track:4sNG6zQBmtq7M8aeeKJRMQ,spotify:track:5WNYg3usc6H8N3MBEp4zVk,spotify:track:6u3CPnFMKANYgfdiifFOiJ,spotify:track:7KA4W4McWYRpgf0fWsJZWB,spotify:track:04QTBqa3IA4ZAKEuqRPzEH,spotify:track:086myS9r57YsLbJpU0TgK9,spotify:track:09j5G3cPZQdRIv0VhVLAZz,spotify:track:0EWT5JnKOf6saRn4ASff3j,spotify:track:0F58GE2TtHBim5o4ZTQUwK,spotify:track:0I1eFRytp4XRhLCjT6tZm7,spotify:track:0I5mUa3CZPcsrWwlUmTWkV,spotify:track:0PldjOTKRt45S9MrLnlwVM,spotify:track:0SA0mMXWh23raZ6xzOCU2V,spotify:track:0Y71FEcRkyZOh4hySnEGB5,spotify:track:0Y8o2jU3ATJsIuatAhTG5Y,spotify:track:0oPOuDmmkVp3h6puekhs6P,spotify:track:0qtK3XwbuG153dmwB8iepL,spotify:track:0ujsBQIHVikzdQOekiu5gS,spotify:track:15p9t3NubOAe6BhsZKMrT1,spotify:track:19YKaevk2bce4odJkP5L22,spotify:track:19woxaSpjOefa2JnAOoqW5,spotify:track:1AqemxWsT0iGg5Lvkm16Bt,spotify:track:1EQCyLy5aXQx59gRAF1YCt,spotify:track:1F1XjwRzMh8KT2BvH6ISkG,spotify:track:1IlVcgWE76pk1FKKtsy3ot,spotify:track:1UIcqXAA24eg76EFWViwr5
track_href,https://api.spotify.com/v1/tracks/0HZk0QsXPhMNAWNDR3rYE8,https://api.spotify.com/v1/tracks/712uvW1Vezq8WpQi38v2L9,https://api.spotify.com/v1/tracks/0AOvNRgl0SMfOibWA5bP8o,https://api.spotify.com/v1/tracks/0d0jsoba88SpOoFxCxA2rZ,https://api.spotify.com/v1/tracks/2P3SLxeQHPqh8qKB6gtJY2,https://api.spotify.com/v1/tracks/2cDCojn6uIBM6A5xTAbl3H,https://api.spotify.com/v1/tracks/3TBiDIgowqySAT34uJ01nf,https://api.spotify.com/v1/tracks/5vuJuBqwzHJgCA1ysRfwxZ,https://api.spotify.com/v1/tracks/7GZ4WYixf0D6DWvvi60yTM,https://api.spotify.com/v1/tracks/5ujh1I7NZH5agbwf7Hp8Hc,https://api.spotify.com/v1/tracks/4bEcoz1OcfMgUbp2ft8ieQ,https://api.spotify.com/v1/tracks/5hVghJ4KaYES3BFUATCYn0,https://api.spotify.com/v1/tracks/7FXy91VYxCQVFtFcSjr4jD,https://api.spotify.com/v1/tracks/078C2jXg7XsMgW78Gfx1JA,https://api.spotify.com/v1/tracks/0NjW4SKY3gbfl2orl1p8hr,https://api.spotify.com/v1/tracks/0fv2KH6hac06J86hBUTcSf,https://api.spotify.com/v1/tracks/0gO3E51A3fqp0ypJ26QbVP,https://api.spotify.com/v1/tracks/1hz7SRTGUNAtIQ46qiNv2p,https://api.spotify.com/v1/tracks/1jzIJcHCXneHw7ojC6LXiF,https://api.spotify.com/v1/tracks/1otG6j1WHNvl9WgXLWkHTo,https://api.spotify.com/v1/tracks/1vvBUZseJ7fwYPX1NedOLd,https://api.spotify.com/v1/tracks/2q0VexHJirnUPnEOhr2DxK,https://api.spotify.com/v1/tracks/3jHdKaLCkuNEkWcLVmQPCX,https://api.spotify.com/v1/tracks/4f8Mh5wuWHOsfXtzjrJB3t,https://api.spotify.com/v1/tracks/4sNG6zQBmtq7M8aeeKJRMQ,https://api.spotify.com/v1/tracks/5WNYg3usc6H8N3MBEp4zVk,https://api.spotify.com/v1/tracks/6u3CPnFMKANYgfdiifFOiJ,https://api.spotify.com/v1/tracks/7KA4W4McWYRpgf0fWsJZWB,https://api.spotify.com/v1/tracks/04QTBqa3IA4ZAKEuqRPzEH,https://api.spotify.com/v1/tracks/086myS9r57YsLbJpU0TgK9,https://api.spotify.com/v1/tracks/09j5G3cPZQdRIv0VhVLAZz,https://api.spotify.com/v1/tracks/0EWT5JnKOf6saRn4ASff3j,https://api.spotify.com/v1/tracks/0F58GE2TtHBim5o4ZTQUwK,https://api.spotify.com/v1/tracks/0I1eFRytp4XRhLCjT6tZm7,https://api.spotify.com/v1/tracks/0I5mUa3CZPcsrWwlUmTWkV,https://api.spotify.com/v1/tracks/0PldjOTKRt45S9MrLnlwVM,https://api.spotify.com/v1/tracks/0SA0mMXWh23raZ6xzOCU2V,https://api.spotify.com/v1/tracks/0Y71FEcRkyZOh4hySnEGB5,https://api.spotify.com/v1/tracks/0Y8o2jU3ATJsIuatAhTG5Y,https://api.spotify.com/v1/tracks/0oPOuDmmkVp3h6puekhs6P,https://api.spotify.com/v1/tracks/0qtK3XwbuG153dmwB8iepL,https://api.spotify.com/v1/tracks/0ujsBQIHVikzdQOekiu5gS,https://api.spotify.com/v1/tracks/15p9t3NubOAe6BhsZKMrT1,https://api.spotify.com/v1/tracks/19YKaevk2bce4odJkP5L22,https://api.spotify.com/v1/tracks/19woxaSpjOefa2JnAOoqW5,https://api.spotify.com/v1/tracks/1AqemxWsT0iGg5Lvkm16Bt,https://api.spotify.com/v1/tracks/1EQCyLy5aXQx59gRAF1YCt,https://api.spotify.com/v1/tracks/1F1XjwRzMh8KT2BvH6ISkG,https://api.spotify.com/v1/tracks/1IlVcgWE76pk1FKKtsy3ot,https://api.spotify.com/v1/tracks/1UIcqXAA24eg76EFWViwr5
analysis_url,https://api.spotify.com/v1/audio-analysis/0HZk0QsXPhMNAWNDR3rYE8,https://api.spotify.com/v1/audio-analysis/712uvW1Vezq8WpQi38v2L9,https://api.spotify.com/v1/audio-analysis/0AOvNRgl0SMfOibWA5bP8o,https://api.spotify.com/v1/audio-analysis/0d0jsoba88SpOoFxCxA2rZ,https://api.spotify.com/v1/audio-analysis/2P3SLxeQHPqh8qKB6gtJY2,https://api.spotify.com/v1/audio-analysis/2cDCojn6uIBM6A5xTAbl3H,https://api.spotify.com/v1/audio-analysis/3TBiDIgowqySAT34uJ01nf,https://api.spotify.com/v1/audio-analysis/5vuJuBqwzHJgCA1ysRfwxZ,https://api.spotify.com/v1/audio-analysis/7GZ4WYixf0D6DWvvi60yTM,https://api.spotify.com/v1/audio-analysis/5ujh1I7NZH5agbwf7Hp8Hc,https://api.spotify.com/v1/audio-analysis/4bEcoz1OcfMgUbp2ft8ieQ,https://api.spotify.com/v1/audio-analysis/5hVghJ4KaYES3BFUATCYn0,https://api.spotify.com/v1/audio-analysis/7FXy91VYxCQVFtFcSjr4jD,https://api.spotify.com/v1/audio-analysis/078C2jXg7XsMgW78Gfx1JA,https://api.spotify.com/v1/audio-analysis/0NjW4SKY3gbfl2orl1p8hr,https://api.spotify.com/v1/audio-analysis/0fv2KH6hac06J86hBUTcSf,https://api.spotify.com/v1/audio-analysis/0gO3E51A3fqp0ypJ26QbVP,https://api.spotify.com/v1/audio-analysis/1hz7SRTGUNAtIQ46qiNv2p,https://api.spotify.com/v1/audio-analysis/1jzIJcHCXneHw7ojC6LXiF,https://api.spotify.com/v1/audio-analysis/1otG6j1WHNvl9WgXLWkHTo,https://api.spotify.com/v1/audio-analysis/1vvBUZseJ7fwYPX1NedOLd,https://api.spotify.com/v1/audio-analysis/2q0VexHJirnUPnEOhr2DxK,https://api.spotify.com/v1/audio-analysis/3jHdKaLCkuNEkWcLVmQPCX,https://api.spotify.com/v1/audio-analysis/4f8Mh5wuWHOsfXtzjrJB3t,https://api.spotify.com/v1/audio-analysis/4sNG6zQBmtq7M8aeeKJRMQ,https://api.spotify.com/v1/audio-analysis/5WNYg3usc6H8N3MBEp4zVk,https://api.spotify.com/v1/audio-analysis/6u3CPnFMKANYgfdiifFOiJ,https://api.spotify.com/v1/audio-analysis/7KA4W4McWYRpgf0fWsJZWB,https://api.spotify.com/v1/audio-analysis/04QTBqa3IA4ZAKEuqRPzEH,https://api.spotify.com/v1/audio-analysis/086myS9r57YsLbJpU0TgK9,https://api.spotify.com/v1/audio-analysis/09j5G3cPZQdRIv0VhVLAZz,https://api.spotify.com/v1/audio-analysis/0EWT5JnKOf6saRn4ASff3j,https://api.spotify.com/v1/audio-analysis/0F58GE2TtHBim5o4ZTQUwK,https://api.spotify.com/v1/audio-analysis/0I1eFRytp4XRhLCjT6tZm7,https://api.spotify.com/v1/audio-analysis/0I5mUa3CZPcsrWwlUmTWkV,https://api.spotify.com/v1/audio-analysis/0PldjOTKRt45S9MrLnlwVM,https://api.spotify.com/v1/audio-analysis/0SA0mMXWh23raZ6xzOCU2V,https://api.spotify.com/v1/audio-analysis/0Y71FEcRkyZOh4hySnEGB5,https://api.spotify.com/v1/audio-analysis/0Y8o2jU3ATJsIuatAhTG5Y,https://api.spotify.com/v1/audio-analysis/0oPOuDmmkVp3h6puekhs6P,https://api.spotify.com/v1/audio-analysis/0qtK3XwbuG153dmwB8iepL,https://api.spotify.com/v1/audio-analysis/0ujsBQIHVikzdQOekiu5gS,https://api.spotify.com/v1/audio-analysis/15p9t3NubOAe6BhsZKMrT1,https://api.spotify.com/v1/audio-analysis/19YKaevk2bce4odJkP5L22,https://api.spotify.com/v1/audio-analysis/19woxaSpjOefa2JnAOoqW5,https://api.spotify.com/v1/audio-analysis/1AqemxWsT0iGg5Lvkm16Bt,https://api.spotify.com/v1/audio-analysis/1EQCyLy5aXQx59gRAF1YCt,https://api.spotify.com/v1/audio-analysis/1F1XjwRzMh8KT2BvH6ISkG,https://api.spotify.com/v1/audio-analysis/1IlVcgWE76pk1FKKtsy3ot,https://api.spotify.com/v1/audio-analysis/1UIcqXAA24eg76EFWViwr5
duration_ms,268960,310720,386907,324533,300160,350120,127267,214120,148160,313787,255653,190067,111781,334363,319253,195320,232839,375387,182493,207455,173938,277521,127921,212013,252307,320720,214693,180387,438493,161124,241920,323133,156547,198213,222333,241413,253387,264438,260587,213878,224893,260200,239011,314075,208400,192973,309893,276360,208760,228827
time_signature,3,4,4,4,4,4,4,4,5,4,4,4,4,4,4,4,4,4,4,4,4,4,3,4,4,4,4,4,4,4,4,4,4,3,3,4,4,4,4,4,5,4,4,4,4,4,4,4,4,4
